AirBnb Insights
…
# Create a Dataframe with available city & dates
create_city_date_dataframe()

## # A tibble: 6 x 4
## # Groups:   city [2]
##   country[,1] region[,1] city[,1]  date      
##   <chr>       <chr>      <chr>     <date>    
## 1 spain       catalonia  barcelona 2020-09-12
## 2 spain       catalonia  barcelona 2020-08-24
## 3 spain       catalonia  barcelona 2020-07-17
## 4 germany     be         berlin    2020-08-30
## 5 germany     be         berlin    2020-06-13
## 6 germany     be         berlin    2020-05-14

## # A tibble: 42 x 4
## # Groups:   city [14]
##    country[,1] region[,1]         city[,1]  date      
##    <chr>       <chr>              <chr>     <date>    
##  1 spain       catalonia          barcelona 2020-09-12
##  2 spain       catalonia          barcelona 2020-08-24
##  3 spain       catalonia          barcelona 2020-07-17
##  4 germany     be                 berlin    2020-08-30
##  5 germany     be                 berlin    2020-06-13
##  6 germany     be                 berlin    2020-05-14
##  7 france      nouvelle-aquitaine bordeaux  2020-09-19
##  8 france      nouvelle-aquitaine bordeaux  2020-08-29
##  9 france      nouvelle-aquitaine bordeaux  2020-07-25
## 10 ireland     leinster           dublin    2020-09-17
## # ... with 32 more rows
…
